…
> ### * mvbmm_example
> 
> flush(stderr()); flush(stdout())
> 
> ### Name: mvbmm_example
> ### Title: Example data
> ### Aliases: mvbmm_example
> ### Keywords: datasets
> 
> ### ** Examples
> 
> data(mvbmm_example)
> head(mvbmm_example)
$successes
# A tibble: 231 x 2
      S1    S2
   <dbl> <dbl>
 1    44    39
 2    38    57
 3    45    54
 4    56    56
 5    54    56
 6    60    44
 7    53    46
 8    53    55
 9    56    53
10    53    60
# … with 221 more rows

$trials
# A tibble: 231 x 2
      S1    S2
   <dbl> <dbl>
 1    86    76
 2    79   106
 3    90   108
 4   111   105
 5   100   102
 6   107    90
 7   111   103
 8    94   104
 9   115    98
10   105   116
# … with 221 more rows
…
