…
In the package we provide `mvbmm_example`, a dataset which shows the
input format.

``` r
data("mvbmm_example")
```

The format is (`S1` and `S2` are the *dimensions*)

``` r
mvbmm_example$successes
```

    ## # A tibble: 231 x 2
    ##       S1    S2
    ##    <dbl> <dbl>
    ##  1    44    39
    ##  2    38    57
    ##  3    45    54
    ##  4    56    56
    ##  5    54    56
    ##  6    60    44
    ##  7    53    46
    ##  8    53    55
    ##  9    56    53
    ## 10    53    60
    ## # ... with 221 more rows
…
